﻿using System;
using TaskableScriptCs.Contracts;

[TaskName("<<<Replace>>>")]
[TaskExample("<<<Replace>>>")]
public class <<<Replace>>>Task : ISimpleTask
{
	public string Pattern
	{
		get
		{
			return "<<<Replace>>> {} <<<Replace>>> {}";
		}
	}

	public Action<string[]> Stuff
	{
		get
		{
			return parameters =>
			{
				throw new NotImplementedException();
			};
		}
	}
}
